"type","sku","manufacturer","manufacturer_sku","name","brand","color","size","gender","age_group","description","price","msrp","configurable_attributes","simples_skus"
"simple","MAG000001","Asics","C562N - 3593","Chaussures junior Asics Gel-Cumulus 17","Asics","bleu clair/argent/jaune flash","32,5","Unisexe","Junior","<p>Laissez votre enfant améliorer le rythme de ses foulées lors de ses entraînements de running avec la Gel-Cumulus 17 GS.</p><p>Son Gel Avant et Arrière favorise un amorti optimal à chaque instant de sa course. La technologie FluidRide garantit un meilleur rebond après chaque contact au sol. L'IGS présent sur la semelle intermédiaire lui permet de faciliter un déroulé plus naturel pendant son parcours.
La mousse SpEVA 45 assure un matelassage ultra confortable pour plus de bien-être tout au long de sa séance de course à pied.
Dotée de la Guidance Trusstic qui offre une stabilité accrue au niveau du médio-pied. La Guidance Line procure une foulée dans l'axe et lui permet d'aborder une course plus efficace.
La semelle extérieure est munie du caoutchouc AHAR+ pour plus d'adhérence et de durabilité.</p><ul><li>Guidance Line® : Une rainure souple, le long de la semelle, guide votre pied pendant que vous courez, pour vous permettre d'adopter une démarche plus efficace.</li><li>Trusstic System® : Ce bijou de technologie ultra-léger traverse votre semelle extérieure, vous offrant encore plus de stabilité pendant la phase intermédiaire, quand vous en avez le plus besoin.</li><li>California Slip Lasting : Pour obtenir ce supplément de stabilité et de confort, la tige est cousue autour d'un panneau en toile ou en EVA, puis fixée à la semelle intermédiaire.</li><li>Removable Sockliner : Une fausse semelle EVA conçue pour épouser la forme de votre pied. Elle est aussi amovible, pour vous permettre de la remplacer par une semelle orthopédique.</li><li>Rearfoot GEL® Cushioning System : Absorbent les chocs importants subis par l'arrière du pied, grâce au système GEL, pour vous permettre de continuer à faire des efforts aussi intenses à la fin de l'entraînement qu'au début.</li><li>3M Reflective : Matériau réfléchissant de 3M qui assure votre sécurité et votre visibilité lorsque vous courez de nuit.</li><li>Type de foulée : Neutres</li></ul>",69,70,,
"simple","MAG000002","Asics","C562N - 3593","Chaussures junior Asics Gel-Cumulus 17","Asics","bleu clair/argent/jaune flash",33,"Unisexe","Junior","<p>Laissez votre enfant améliorer le rythme de ses foulées lors de ses entraînements de running avec la Gel-Cumulus 17 GS.</p><p>Son Gel Avant et Arrière favorise un amorti optimal à chaque instant de sa course. La technologie FluidRide garantit un meilleur rebond après chaque contact au sol. L'IGS présent sur la semelle intermédiaire lui permet de faciliter un déroulé plus naturel pendant son parcours.
La mousse SpEVA 45 assure un matelassage ultra confortable pour plus de bien-être tout au long de sa séance de course à pied.
Dotée de la Guidance Trusstic qui offre une stabilité accrue au niveau du médio-pied. La Guidance Line procure une foulée dans l'axe et lui permet d'aborder une course plus efficace.
La semelle extérieure est munie du caoutchouc AHAR+ pour plus d'adhérence et de durabilité.</p><ul><li>Guidance Line® : Une rainure souple, le long de la semelle, guide votre pied pendant que vous courez, pour vous permettre d'adopter une démarche plus efficace.</li><li>Trusstic System® : Ce bijou de technologie ultra-léger traverse votre semelle extérieure, vous offrant encore plus de stabilité pendant la phase intermédiaire, quand vous en avez le plus besoin.</li><li>California Slip Lasting : Pour obtenir ce supplément de stabilité et de confort, la tige est cousue autour d'un panneau en toile ou en EVA, puis fixée à la semelle intermédiaire.</li><li>Removable Sockliner : Une fausse semelle EVA conçue pour épouser la forme de votre pied. Elle est aussi amovible, pour vous permettre de la remplacer par une semelle orthopédique.</li><li>Rearfoot GEL® Cushioning System : Absorbent les chocs importants subis par l'arrière du pied, grâce au système GEL, pour vous permettre de continuer à faire des efforts aussi intenses à la fin de l'entraînement qu'au début.</li><li>3M Reflective : Matériau réfléchissant de 3M qui assure votre sécurité et votre visibilité lorsque vous courez de nuit.</li><li>Type de foulée : Neutres</li></ul>",69,70,,
"simple","MAG000003","Asics","C562N - 3593","Chaussures junior Asics Gel-Cumulus 17","Asics","bleu clair/argent/jaune flash","33,5","Unisexe","Junior","<p>Laissez votre enfant améliorer le rythme de ses foulées lors de ses entraînements de running avec la Gel-Cumulus 17 GS.</p><p>Son Gel Avant et Arrière favorise un amorti optimal à chaque instant de sa course. La technologie FluidRide garantit un meilleur rebond après chaque contact au sol. L'IGS présent sur la semelle intermédiaire lui permet de faciliter un déroulé plus naturel pendant son parcours.
La mousse SpEVA 45 assure un matelassage ultra confortable pour plus de bien-être tout au long de sa séance de course à pied.
Dotée de la Guidance Trusstic qui offre une stabilité accrue au niveau du médio-pied. La Guidance Line procure une foulée dans l'axe et lui permet d'aborder une course plus efficace.
La semelle extérieure est munie du caoutchouc AHAR+ pour plus d'adhérence et de durabilité.</p><ul><li>Guidance Line® : Une rainure souple, le long de la semelle, guide votre pied pendant que vous courez, pour vous permettre d'adopter une démarche plus efficace.</li><li>Trusstic System® : Ce bijou de technologie ultra-léger traverse votre semelle extérieure, vous offrant encore plus de stabilité pendant la phase intermédiaire, quand vous en avez le plus besoin.</li><li>California Slip Lasting : Pour obtenir ce supplément de stabilité et de confort, la tige est cousue autour d'un panneau en toile ou en EVA, puis fixée à la semelle intermédiaire.</li><li>Removable Sockliner : Une fausse semelle EVA conçue pour épouser la forme de votre pied. Elle est aussi amovible, pour vous permettre de la remplacer par une semelle orthopédique.</li><li>Rearfoot GEL® Cushioning System : Absorbent les chocs importants subis par l'arrière du pied, grâce au système GEL, pour vous permettre de continuer à faire des efforts aussi intenses à la fin de l'entraînement qu'au début.</li><li>3M Reflective : Matériau réfléchissant de 3M qui assure votre sécurité et votre visibilité lorsque vous courez de nuit.</li><li>Type de foulée : Neutres</li></ul>",69,70,,
"simple","MAG000004","Asics","C562N - 3593","Chaussures junior Asics Gel-Cumulus 17","Asics","bleu clair/argent/jaune flash","34,5","Unisexe","Junior","<p>Laissez votre enfant améliorer le rythme de ses foulées lors de ses entraînements de running avec la Gel-Cumulus 17 GS.</p><p>Son Gel Avant et Arrière favorise un amorti optimal à chaque instant de sa course. La technologie FluidRide garantit un meilleur rebond après chaque contact au sol. L'IGS présent sur la semelle intermédiaire lui permet de faciliter un déroulé plus naturel pendant son parcours.
La mousse SpEVA 45 assure un matelassage ultra confortable pour plus de bien-être tout au long de sa séance de course à pied.
Dotée de la Guidance Trusstic qui offre une stabilité accrue au niveau du médio-pied. La Guidance Line procure une foulée dans l'axe et lui permet d'aborder une course plus efficace.
La semelle extérieure est munie du caoutchouc AHAR+ pour plus d'adhérence et de durabilité.</p><ul><li>Guidance Line® : Une rainure souple, le long de la semelle, guide votre pied pendant que vous courez, pour vous permettre d'adopter une démarche plus efficace.</li><li>Trusstic System® : Ce bijou de technologie ultra-léger traverse votre semelle extérieure, vous offrant encore plus de stabilité pendant la phase intermédiaire, quand vous en avez le plus besoin.</li><li>California Slip Lasting : Pour obtenir ce supplément de stabilité et de confort, la tige est cousue autour d'un panneau en toile ou en EVA, puis fixée à la semelle intermédiaire.</li><li>Removable Sockliner : Une fausse semelle EVA conçue pour épouser la forme de votre pied. Elle est aussi amovible, pour vous permettre de la remplacer par une semelle orthopédique.</li><li>Rearfoot GEL® Cushioning System : Absorbent les chocs importants subis par l'arrière du pied, grâce au système GEL, pour vous permettre de continuer à faire des efforts aussi intenses à la fin de l'entraînement qu'au début.</li><li>3M Reflective : Matériau réfléchissant de 3M qui assure votre sécurité et votre visibilité lorsque vous courez de nuit.</li><li>Type de foulée : Neutres</li></ul>",69,70,,
"simple","MAG000005","Asics","C562N - 3593","Chaussures junior Asics Gel-Cumulus 17","Asics","bleu clair/argent/jaune flash",35,"Unisexe","Junior","<p>Laissez votre enfant améliorer le rythme de ses foulées lors de ses entraînements de running avec la Gel-Cumulus 17 GS.</p><p>Son Gel Avant et Arrière favorise un amorti optimal à chaque instant de sa course. La technologie FluidRide garantit un meilleur rebond après chaque contact au sol. L'IGS présent sur la semelle intermédiaire lui permet de faciliter un déroulé plus naturel pendant son parcours.
La mousse SpEVA 45 assure un matelassage ultra confortable pour plus de bien-être tout au long de sa séance de course à pied.
Dotée de la Guidance Trusstic qui offre une stabilité accrue au niveau du médio-pied. La Guidance Line procure une foulée dans l'axe et lui permet d'aborder une course plus efficace.
La semelle extérieure est munie du caoutchouc AHAR+ pour plus d'adhérence et de durabilité.</p><ul><li>Guidance Line® : Une rainure souple, le long de la semelle, guide votre pied pendant que vous courez, pour vous permettre d'adopter une démarche plus efficace.</li><li>Trusstic System® : Ce bijou de technologie ultra-léger traverse votre semelle extérieure, vous offrant encore plus de stabilité pendant la phase intermédiaire, quand vous en avez le plus besoin.</li><li>California Slip Lasting : Pour obtenir ce supplément de stabilité et de confort, la tige est cousue autour d'un panneau en toile ou en EVA, puis fixée à la semelle intermédiaire.</li><li>Removable Sockliner : Une fausse semelle EVA conçue pour épouser la forme de votre pied. Elle est aussi amovible, pour vous permettre de la remplacer par une semelle orthopédique.</li><li>Rearfoot GEL® Cushioning System : Absorbent les chocs importants subis par l'arrière du pied, grâce au système GEL, pour vous permettre de continuer à faire des efforts aussi intenses à la fin de l'entraînement qu'au début.</li><li>3M Reflective : Matériau réfléchissant de 3M qui assure votre sécurité et votre visibilité lorsque vous courez de nuit.</li><li>Type de foulée : Neutres</li></ul>",69,70,,
"simple","MAG000006","Asics","C562N - 3593","Chaussures junior Asics Gel-Cumulus 17","Asics","bleu clair/argent/jaune flash","35,5","Unisexe","Junior","<p>Laissez votre enfant améliorer le rythme de ses foulées lors de ses entraînements de running avec la Gel-Cumulus 17 GS.</p><p>Son Gel Avant et Arrière favorise un amorti optimal à chaque instant de sa course. La technologie FluidRide garantit un meilleur rebond après chaque contact au sol. L'IGS présent sur la semelle intermédiaire lui permet de faciliter un déroulé plus naturel pendant son parcours.
La mousse SpEVA 45 assure un matelassage ultra confortable pour plus de bien-être tout au long de sa séance de course à pied.
Dotée de la Guidance Trusstic qui offre une stabilité accrue au niveau du médio-pied. La Guidance Line procure une foulée dans l'axe et lui permet d'aborder une course plus efficace.
La semelle extérieure est munie du caoutchouc AHAR+ pour plus d'adhérence et de durabilité.</p><ul><li>Guidance Line® : Une rainure souple, le long de la semelle, guide votre pied pendant que vous courez, pour vous permettre d'adopter une démarche plus efficace.</li><li>Trusstic System® : Ce bijou de technologie ultra-léger traverse votre semelle extérieure, vous offrant encore plus de stabilité pendant la phase intermédiaire, quand vous en avez le plus besoin.</li><li>California Slip Lasting : Pour obtenir ce supplément de stabilité et de confort, la tige est cousue autour d'un panneau en toile ou en EVA, puis fixée à la semelle intermédiaire.</li><li>Removable Sockliner : Une fausse semelle EVA conçue pour épouser la forme de votre pied. Elle est aussi amovible, pour vous permettre de la remplacer par une semelle orthopédique.</li><li>Rearfoot GEL® Cushioning System : Absorbent les chocs importants subis par l'arrière du pied, grâce au système GEL, pour vous permettre de continuer à faire des efforts aussi intenses à la fin de l'entraînement qu'au début.</li><li>3M Reflective : Matériau réfléchissant de 3M qui assure votre sécurité et votre visibilité lorsque vous courez de nuit.</li><li>Type de foulée : Neutres</li></ul>",69,70,,
"simple","MAG000007","Asics","C562N - 3593","Chaussures junior Asics Gel-Cumulus 17","Asics","bleu clair/argent/jaune flash",36,"Unisexe","Junior","<p>Laissez votre enfant améliorer le rythme de ses foulées lors de ses entraînements de running avec la Gel-Cumulus 17 GS.</p><p>Son Gel Avant et Arrière favorise un amorti optimal à chaque instant de sa course. La technologie FluidRide garantit un meilleur rebond après chaque contact au sol. L'IGS présent sur la semelle intermédiaire lui permet de faciliter un déroulé plus naturel pendant son parcours.
La mousse SpEVA 45 assure un matelassage ultra confortable pour plus de bien-être tout au long de sa séance de course à pied.
Dotée de la Guidance Trusstic qui offre une stabilité accrue au niveau du médio-pied. La Guidance Line procure une foulée dans l'axe et lui permet d'aborder une course plus efficace.
La semelle extérieure est munie du caoutchouc AHAR+ pour plus d'adhérence et de durabilité.</p><ul><li>Guidance Line® : Une rainure souple, le long de la semelle, guide votre pied pendant que vous courez, pour vous permettre d'adopter une démarche plus efficace.</li><li>Trusstic System® : Ce bijou de technologie ultra-léger traverse votre semelle extérieure, vous offrant encore plus de stabilité pendant la phase intermédiaire, quand vous en avez le plus besoin.</li><li>California Slip Lasting : Pour obtenir ce supplément de stabilité et de confort, la tige est cousue autour d'un panneau en toile ou en EVA, puis fixée à la semelle intermédiaire.</li><li>Removable Sockliner : Une fausse semelle EVA conçue pour épouser la forme de votre pied. Elle est aussi amovible, pour vous permettre de la remplacer par une semelle orthopédique.</li><li>Rearfoot GEL® Cushioning System : Absorbent les chocs importants subis par l'arrière du pied, grâce au système GEL, pour vous permettre de continuer à faire des efforts aussi intenses à la fin de l'entraînement qu'au début.</li><li>3M Reflective : Matériau réfléchissant de 3M qui assure votre sécurité et votre visibilité lorsque vous courez de nuit.</li><li>Type de foulée : Neutres</li></ul>",69,70,,
"simple","MAG000008","Asics","C562N - 3593","Chaussures junior Asics Gel-Cumulus 17","Asics","bleu clair/argent/jaune flash",37,"Unisexe","Junior","<p>Laissez votre enfant améliorer le rythme de ses foulées lors de ses entraînements de running avec la Gel-Cumulus 17 GS.</p><p>Son Gel Avant et Arrière favorise un amorti optimal à chaque instant de sa course. La technologie FluidRide garantit un meilleur rebond après chaque contact au sol. L'IGS présent sur la semelle intermédiaire lui permet de faciliter un déroulé plus naturel pendant son parcours.
La mousse SpEVA 45 assure un matelassage ultra confortable pour plus de bien-être tout au long de sa séance de course à pied.
Dotée de la Guidance Trusstic qui offre une stabilité accrue au niveau du médio-pied. La Guidance Line procure une foulée dans l'axe et lui permet d'aborder une course plus efficace.
La semelle extérieure est munie du caoutchouc AHAR+ pour plus d'adhérence et de durabilité.</p><ul><li>Guidance Line® : Une rainure souple, le long de la semelle, guide votre pied pendant que vous courez, pour vous permettre d'adopter une démarche plus efficace.</li><li>Trusstic System® : Ce bijou de technologie ultra-léger traverse votre semelle extérieure, vous offrant encore plus de stabilité pendant la phase intermédiaire, quand vous en avez le plus besoin.</li><li>California Slip Lasting : Pour obtenir ce supplément de stabilité et de confort, la tige est cousue autour d'un panneau en toile ou en EVA, puis fixée à la semelle intermédiaire.</li><li>Removable Sockliner : Une fausse semelle EVA conçue pour épouser la forme de votre pied. Elle est aussi amovible, pour vous permettre de la remplacer par une semelle orthopédique.</li><li>Rearfoot GEL® Cushioning System : Absorbent les chocs importants subis par l'arrière du pied, grâce au système GEL, pour vous permettre de continuer à faire des efforts aussi intenses à la fin de l'entraînement qu'au début.</li><li>3M Reflective : Matériau réfléchissant de 3M qui assure votre sécurité et votre visibilité lorsque vous courez de nuit.</li><li>Type de foulée : Neutres</li></ul>",69,70,,
"simple","MAG000009","Asics","C562N - 3593","Chaussures junior Asics Gel-Cumulus 17","Asics","bleu clair/argent/jaune flash","37,5","Unisexe","Junior","<p>Laissez votre enfant améliorer le rythme de ses foulées lors de ses entraînements de running avec la Gel-Cumulus 17 GS.</p><p>Son Gel Avant et Arrière favorise un amorti optimal à chaque instant de sa course. La technologie FluidRide garantit un meilleur rebond après chaque contact au sol. L'IGS présent sur la semelle intermédiaire lui permet de faciliter un déroulé plus naturel pendant son parcours.
La mousse SpEVA 45 assure un matelassage ultra confortable pour plus de bien-être tout au long de sa séance de course à pied.
Dotée de la Guidance Trusstic qui offre une stabilité accrue au niveau du médio-pied. La Guidance Line procure une foulée dans l'axe et lui permet d'aborder une course plus efficace.
La semelle extérieure est munie du caoutchouc AHAR+ pour plus d'adhérence et de durabilité.</p><ul><li>Guidance Line® : Une rainure souple, le long de la semelle, guide votre pied pendant que vous courez, pour vous permettre d'adopter une démarche plus efficace.</li><li>Trusstic System® : Ce bijou de technologie ultra-léger traverse votre semelle extérieure, vous offrant encore plus de stabilité pendant la phase intermédiaire, quand vous en avez le plus besoin.</li><li>California Slip Lasting : Pour obtenir ce supplément de stabilité et de confort, la tige est cousue autour d'un panneau en toile ou en EVA, puis fixée à la semelle intermédiaire.</li><li>Removable Sockliner : Une fausse semelle EVA conçue pour épouser la forme de votre pied. Elle est aussi amovible, pour vous permettre de la remplacer par une semelle orthopédique.</li><li>Rearfoot GEL® Cushioning System : Absorbent les chocs importants subis par l'arrière du pied, grâce au système GEL, pour vous permettre de continuer à faire des efforts aussi intenses à la fin de l'entraînement qu'au début.</li><li>3M Reflective : Matériau réfléchissant de 3M qui assure votre sécurité et votre visibilité lorsque vous courez de nuit.</li><li>Type de foulée : Neutres</li></ul>",69,70,,
"simple","MAG000010","Asics","C562N - 3593","Chaussures junior Asics Gel-Cumulus 17","Asics","bleu clair/argent/jaune flash",38,"Unisexe","Junior","<p>Laissez votre enfant améliorer le rythme de ses foulées lors de ses entraînements de running avec la Gel-Cumulus 17 GS.</p><p>Son Gel Avant et Arrière favorise un amorti optimal à chaque instant de sa course. La technologie FluidRide garantit un meilleur rebond après chaque contact au sol. L'IGS présent sur la semelle intermédiaire lui permet de faciliter un déroulé plus naturel pendant son parcours.
La mousse SpEVA 45 assure un matelassage ultra confortable pour plus de bien-être tout au long de sa séance de course à pied.
Dotée de la Guidance Trusstic qui offre une stabilité accrue au niveau du médio-pied. La Guidance Line procure une foulée dans l'axe et lui permet d'aborder une course plus efficace.
La semelle extérieure est munie du caoutchouc AHAR+ pour plus d'adhérence et de durabilité.</p><ul><li>Guidance Line® : Une rainure souple, le long de la semelle, guide votre pied pendant que vous courez, pour vous permettre d'adopter une démarche plus efficace.</li><li>Trusstic System® : Ce bijou de technologie ultra-léger traverse votre semelle extérieure, vous offrant encore plus de stabilité pendant la phase intermédiaire, quand vous en avez le plus besoin.</li><li>California Slip Lasting : Pour obtenir ce supplément de stabilité et de confort, la tige est cousue autour d'un panneau en toile ou en EVA, puis fixée à la semelle intermédiaire.</li><li>Removable Sockliner : Une fausse semelle EVA conçue pour épouser la forme de votre pied. Elle est aussi amovible, pour vous permettre de la remplacer par une semelle orthopédique.</li><li>Rearfoot GEL® Cushioning System : Absorbent les chocs importants subis par l'arrière du pied, grâce au système GEL, pour vous permettre de continuer à faire des efforts aussi intenses à la fin de l'entraînement qu'au début.</li><li>3M Reflective : Matériau réfléchissant de 3M qui assure votre sécurité et votre visibilité lorsque vous courez de nuit.</li><li>Type de foulée : Neutres</li></ul>",69,70,,
"simple","MAG000011","Asics","C562N - 3593","Chaussures junior Asics Gel-Cumulus 17","Asics","bleu clair/argent/jaune flash",39,"Unisexe","Junior","<p>Laissez votre enfant améliorer le rythme de ses foulées lors de ses entraînements de running avec la Gel-Cumulus 17 GS.</p><p>Son Gel Avant et Arrière favorise un amorti optimal à chaque instant de sa course. La technologie FluidRide garantit un meilleur rebond après chaque contact au sol. L'IGS présent sur la semelle intermédiaire lui permet de faciliter un déroulé plus naturel pendant son parcours.
La mousse SpEVA 45 assure un matelassage ultra confortable pour plus de bien-être tout au long de sa séance de course à pied.
Dotée de la Guidance Trusstic qui offre une stabilité accrue au niveau du médio-pied. La Guidance Line procure une foulée dans l'axe et lui permet d'aborder une course plus efficace.
La semelle extérieure est munie du caoutchouc AHAR+ pour plus d'adhérence et de durabilité.</p><ul><li>Guidance Line® : Une rainure souple, le long de la semelle, guide votre pied pendant que vous courez, pour vous permettre d'adopter une démarche plus efficace.</li><li>Trusstic System® : Ce bijou de technologie ultra-léger traverse votre semelle extérieure, vous offrant encore plus de stabilité pendant la phase intermédiaire, quand vous en avez le plus besoin.</li><li>California Slip Lasting : Pour obtenir ce supplément de stabilité et de confort, la tige est cousue autour d'un panneau en toile ou en EVA, puis fixée à la semelle intermédiaire.</li><li>Removable Sockliner : Une fausse semelle EVA conçue pour épouser la forme de votre pied. Elle est aussi amovible, pour vous permettre de la remplacer par une semelle orthopédique.</li><li>Rearfoot GEL® Cushioning System : Absorbent les chocs importants subis par l'arrière du pied, grâce au système GEL, pour vous permettre de continuer à faire des efforts aussi intenses à la fin de l'entraînement qu'au début.</li><li>3M Reflective : Matériau réfléchissant de 3M qui assure votre sécurité et votre visibilité lorsque vous courez de nuit.</li><li>Type de foulée : Neutres</li></ul>",69,70,,
"simple","MAG000012","Asics","C562N - 3593","Chaussures junior Asics Gel-Cumulus 17","Asics","bleu clair/argent/jaune flash","39,5","Unisexe","Junior","<p>Laissez votre enfant améliorer le rythme de ses foulées lors de ses entraînements de running avec la Gel-Cumulus 17 GS.</p><p>Son Gel Avant et Arrière favorise un amorti optimal à chaque instant de sa course. La technologie FluidRide garantit un meilleur rebond après chaque contact au sol. L'IGS présent sur la semelle intermédiaire lui permet de faciliter un déroulé plus naturel pendant son parcours.
La mousse SpEVA 45 assure un matelassage ultra confortable pour plus de bien-être tout au long de sa séance de course à pied.
Dotée de la Guidance Trusstic qui offre une stabilité accrue au niveau du médio-pied. La Guidance Line procure une foulée dans l'axe et lui permet d'aborder une course plus efficace.
La semelle extérieure est munie du caoutchouc AHAR+ pour plus d'adhérence et de durabilité.</p><ul><li>Guidance Line® : Une rainure souple, le long de la semelle, guide votre pied pendant que vous courez, pour vous permettre d'adopter une démarche plus efficace.</li><li>Trusstic System® : Ce bijou de technologie ultra-léger traverse votre semelle extérieure, vous offrant encore plus de stabilité pendant la phase intermédiaire, quand vous en avez le plus besoin.</li><li>California Slip Lasting : Pour obtenir ce supplément de stabilité et de confort, la tige est cousue autour d'un panneau en toile ou en EVA, puis fixée à la semelle intermédiaire.</li><li>Removable Sockliner : Une fausse semelle EVA conçue pour épouser la forme de votre pied. Elle est aussi amovible, pour vous permettre de la remplacer par une semelle orthopédique.</li><li>Rearfoot GEL® Cushioning System : Absorbent les chocs importants subis par l'arrière du pied, grâce au système GEL, pour vous permettre de continuer à faire des efforts aussi intenses à la fin de l'entraînement qu'au début.</li><li>3M Reflective : Matériau réfléchissant de 3M qui assure votre sécurité et votre visibilité lorsque vous courez de nuit.</li><li>Type de foulée : Neutres</li></ul>",69,70,,
"simple","MAG000013","Asics","C562N - 3593","Chaussures junior Asics Gel-Cumulus 17","Asics","bleu clair/argent/jaune flash",40,"Unisexe","Junior","<p>Laissez votre enfant améliorer le rythme de ses foulées lors de ses entraînements de running avec la Gel-Cumulus 17 GS.</p><p>Son Gel Avant et Arrière favorise un amorti optimal à chaque instant de sa course. La technologie FluidRide garantit un meilleur rebond après chaque contact au sol. L'IGS présent sur la semelle intermédiaire lui permet de faciliter un déroulé plus naturel pendant son parcours.
La mousse SpEVA 45 assure un matelassage ultra confortable pour plus de bien-être tout au long de sa séance de course à pied.
Dotée de la Guidance Trusstic qui offre une stabilité accrue au niveau du médio-pied. La Guidance Line procure une foulée dans l'axe et lui permet d'aborder une course plus efficace.
La semelle extérieure est munie du caoutchouc AHAR+ pour plus d'adhérence et de durabilité.</p><ul><li>Guidance Line® : Une rainure souple, le long de la semelle, guide votre pied pendant que vous courez, pour vous permettre d'adopter une démarche plus efficace.</li><li>Trusstic System® : Ce bijou de technologie ultra-léger traverse votre semelle extérieure, vous offrant encore plus de stabilité pendant la phase intermédiaire, quand vous en avez le plus besoin.</li><li>California Slip Lasting : Pour obtenir ce supplément de stabilité et de confort, la tige est cousue autour d'un panneau en toile ou en EVA, puis fixée à la semelle intermédiaire.</li><li>Removable Sockliner : Une fausse semelle EVA conçue pour épouser la forme de votre pied. Elle est aussi amovible, pour vous permettre de la remplacer par une semelle orthopédique.</li><li>Rearfoot GEL® Cushioning System : Absorbent les chocs importants subis par l'arrière du pied, grâce au système GEL, pour vous permettre de continuer à faire des efforts aussi intenses à la fin de l'entraînement qu'au début.</li><li>3M Reflective : Matériau réfléchissant de 3M qui assure votre sécurité et votre visibilité lorsque vous courez de nuit.</li><li>Type de foulée : Neutres</li></ul>",69,70,,
"configurable","MAG000014","Asics","C562N - 3593","Chaussures junior Asics Gel-Cumulus 17","Asics","bleu clair/argent/jaune flash",,"Unisexe","Junior","<p>Laissez votre enfant améliorer le rythme de ses foulées lors de ses entraînements de running avec la Gel-Cumulus 17 GS.</p><p>Son Gel Avant et Arrière favorise un amorti optimal à chaque instant de sa course. La technologie FluidRide garantit un meilleur rebond après chaque contact au sol. L'IGS présent sur la semelle intermédiaire lui permet de faciliter un déroulé plus naturel pendant son parcours.
La mousse SpEVA 45 assure un matelassage ultra confortable pour plus de bien-être tout au long de sa séance de course à pied.
Dotée de la Guidance Trusstic qui offre une stabilité accrue au niveau du médio-pied. La Guidance Line procure une foulée dans l'axe et lui permet d'aborder une course plus efficace.
La semelle extérieure est munie du caoutchouc AHAR+ pour plus d'adhérence et de durabilité.</p><ul><li>Guidance Line® : Une rainure souple, le long de la semelle, guide votre pied pendant que vous courez, pour vous permettre d'adopter une démarche plus efficace.</li><li>Trusstic System® : Ce bijou de technologie ultra-léger traverse votre semelle extérieure, vous offrant encore plus de stabilité pendant la phase intermédiaire, quand vous en avez le plus besoin.</li><li>California Slip Lasting : Pour obtenir ce supplément de stabilité et de confort, la tige est cousue autour d'un panneau en toile ou en EVA, puis fixée à la semelle intermédiaire.</li><li>Removable Sockliner : Une fausse semelle EVA conçue pour épouser la forme de votre pied. Elle est aussi amovible, pour vous permettre de la remplacer par une semelle orthopédique.</li><li>Rearfoot GEL® Cushioning System : Absorbent les chocs importants subis par l'arrière du pied, grâce au système GEL, pour vous permettre de continuer à faire des efforts aussi intenses à la fin de l'entraînement qu'au début.</li><li>3M Reflective : Matériau réfléchissant de 3M qui assure votre sécurité et votre visibilité lorsque vous courez de nuit.</li><li>Type de foulée : Neutres</li></ul>",69,70,"size","MAG000001, MAG000002, MAG000003, MAG000004, MAG000005, MAG000006, MAG000007, MAG000008, MAG000009, MAG000010, MAG000011, MAG000012, MAG000013, MAG000014"
